[gd_scene load_steps=5 format=2]

[ext_resource path="res://Engine/Bullet.gd" type="Script" id=1]
[ext_resource path="res://Assets/Bullet.png" type="Texture" id=2]

[sub_resource type="CanvasItemMaterial" id=1]

render_priority = 0
blend_mode = 1
light_mode = 0

[sub_resource type="CircleShape2D" id=2]

custom_solver_bias = 0.0
radius = 24.6567

[node name="Bullet" type="KinematicBody2D" index="0"]

scale = Vector2( 0.2, 0.2 )
input_pickable = false
collision_layer = 1
collision_mask = 1
collision/safe_margin = 0.08
script = ExtResource( 1 )
_sections_unfolded = [ "Transform" ]

[node name="Sprite" type="Sprite" parent="." index="0"]

material = SubResource( 1 )
texture = ExtResource( 2 )
_sections_unfolded = [ "Material", "Visibility" ]

[node name="CollisionShape2D" type="CollisionShape2D" parent="." index="1"]

shape = SubResource( 2 )


